Date,Open,High,Low,Close,Adj Close,Volume
2017-12-18,null,null,null,null,null,null
2017-12-19,204.000000,207.000000,204.000000,206.000000,199.439117,5176500
2017-12-20,206.000000,207.000000,205.000000,206.000000,199.439117,1908000
2017-12-21,206.000000,207.000000,205.000000,205.000000,198.470947,990900
2017-12-22,206.000000,207.000000,204.000000,205.000000,198.470947,1485500
2017-12-25,205.000000,206.000000,204.000000,206.000000,199.439117,2155000
2017-12-26,205.000000,206.000000,204.000000,204.000000,197.502792,2163100
2017-12-27,204.000000,205.000000,203.000000,203.000000,196.534653,2218100
2017-12-28,203.000000,204.000000,200.000000,201.000000,194.598343,3714600
2017-12-29,201.000000,203.000000,201.000000,202.000000,195.566498,1728400
2018-01-03,202.000000,207.000000,202.000000,205.000000,198.470947,4954100
2018-01-04,206.000000,207.000000,205.000000,205.000000,198.470947,4338700
2018-01-05,206.000000,210.000000,206.000000,206.000000,199.439117,9987000
2018-01-08,207.000000,209.000000,206.000000,207.000000,200.407257,3930000
2018-01-09,208.000000,208.000000,208.000000,208.000000,201.375412,390100
2018-01-10,208.000000,210.000000,206.000000,206.000000,199.439117,3364600
2018-01-11,206.000000,208.000000,204.000000,208.000000,201.375412,4677600
2018-01-12,209.000000,211.000000,207.000000,209.000000,202.343552,6017100
2018-01-15,210.000000,213.000000,210.000000,212.000000,205.248001,5910800
2018-01-16,213.000000,213.000000,210.000000,212.000000,205.248001,2422200
2018-01-17,210.000000,213.000000,209.000000,213.000000,206.216156,3651800
2018-01-18,213.000000,213.000000,211.000000,213.000000,206.216156,3105700
2018-01-19,211.000000,212.000000,208.000000,212.000000,205.248001,6755300
2018-01-22,210.000000,211.000000,209.000000,211.000000,204.279861,2352700
2018-01-23,212.000000,215.000000,211.000000,215.000000,208.152466,5038200
2018-01-24,215.000000,216.000000,213.000000,215.000000,208.152466,4809500
2018-01-25,215.000000,217.000000,211.000000,211.000000,204.279861,5657900
2018-01-26,210.000000,211.000000,206.000000,210.000000,203.311707,8436400
2018-01-29,212.000000,212.000000,209.000000,209.000000,202.343552,2998800
2018-01-30,210.000000,210.000000,207.000000,207.000000,200.407257,5740300
2018-01-31,207.000000,209.000000,206.000000,207.000000,200.407257,3031800
2018-02-01,207.000000,210.000000,207.000000,208.000000,201.375412,4652000
2018-02-02,209.000000,210.000000,207.000000,210.000000,203.311707,3207100
2018-02-05,206.000000,209.000000,205.000000,208.000000,201.375412,4487400
2018-02-06,206.000000,207.000000,201.000000,206.000000,199.439117,9104900
2018-02-07,209.000000,210.000000,204.000000,204.000000,197.502792,3735100
2018-02-08,204.000000,207.000000,204.000000,206.000000,199.439117,2149500
2018-02-09,203.000000,208.000000,203.000000,208.000000,201.375412,4265500
2018-02-12,208.000000,208.000000,205.000000,206.000000,199.439117,2607500
2018-02-13,206.000000,207.000000,205.000000,205.000000,198.470947,3061900
2018-02-14,205.000000,207.000000,205.000000,206.000000,199.439117,2067500
2018-02-15,205.000000,207.000000,205.000000,206.000000,199.439117,1948500
2018-02-16,207.000000,209.000000,206.000000,206.000000,199.439117,2205400
2018-02-19,207.000000,208.000000,207.000000,208.000000,201.375412,791400
2018-02-20,206.000000,207.000000,205.000000,205.000000,198.470947,1453100
2018-02-21,206.000000,207.000000,205.000000,206.000000,199.439117,1348400
2018-02-22,206.000000,206.000000,204.000000,206.000000,199.439117,1616700
2018-02-23,205.000000,207.000000,204.000000,206.000000,199.439117,1577500
2018-02-26,206.000000,208.000000,205.000000,208.000000,201.375412,1935800
2018-02-27,209.000000,214.000000,208.000000,210.000000,203.311707,8793300
2018-02-28,210.000000,213.000000,209.000000,211.000000,204.279861,5181600
2018-03-02,209.000000,211.000000,208.000000,210.000000,203.311707,2677000
2018-03-05,209.000000,211.000000,207.000000,208.000000,201.375412,2171300
2018-03-06,208.000000,208.000000,208.000000,208.000000,201.375412,253100
2018-03-07,208.000000,209.000000,206.000000,206.000000,199.439117,2533900
2018-03-08,207.000000,209.000000,206.000000,209.000000,202.343552,2262700
2018-03-09,210.000000,210.000000,208.000000,210.000000,203.311707,2036000
2018-03-12,211.000000,211.000000,209.000000,211.000000,204.279861,2779500
2018-03-13,211.000000,212.000000,208.000000,209.000000,202.343552,2352300
2018-03-14,209.000000,210.000000,209.000000,209.000000,202.343552,1488600
2018-03-15,209.000000,210.000000,208.000000,210.000000,203.311707,2350900
2018-03-16,210.000000,210.000000,209.000000,209.000000,202.343552,1510400
2018-03-19,209.000000,210.000000,208.000000,208.000000,201.375412,964200
2018-03-20,208.000000,208.000000,206.000000,206.000000,199.439117,2182300
2018-03-21,208.000000,208.000000,203.000000,203.000000,196.534653,5864800
2018-03-22,204.000000,204.000000,202.000000,204.000000,197.502792,2613200
2018-03-23,202.000000,203.000000,201.000000,202.000000,195.566498,3544100
2018-03-26,202.000000,204.000000,199.500000,200.000000,193.630203,4270500
2018-03-27,203.000000,207.000000,202.000000,202.000000,195.566498,30914900
2018-03-28,202.000000,204.000000,200.000000,202.000000,195.566498,11794100
2018-03-29,200.000000,201.000000,198.000000,198.000000,191.693909,11869800
2018-03-30,198.500000,199.000000,195.000000,197.000000,190.725739,5345200
2018-04-02,197.000000,199.500000,196.500000,199.500000,193.146118,3714200
2018-04-03,199.500000,201.000000,198.000000,198.500000,192.177963,4978500
2018-04-04,199.500000,199.500000,187.500000,188.500000,182.496460,15671300
2018-04-05,191.000000,191.500000,188.500000,189.000000,182.980530,7180300
2018-04-09,189.000000,194.000000,188.500000,193.000000,186.853149,5913000
2018-04-10,194.500000,196.000000,193.500000,194.500000,188.305374,5818500
2018-04-11,196.000000,199.500000,196.000000,197.500000,191.209824,4711900
2018-04-12,198.500000,198.500000,195.500000,197.000000,190.725739,2699100
2018-04-17,198.500000,201.000000,197.500000,201.000000,194.598343,4226700
2018-04-18,202.000000,205.000000,201.000000,205.000000,198.470947,4986800
2018-04-19,205.000000,206.000000,199.500000,201.000000,194.598343,5309100
2018-04-20,201.000000,203.000000,199.500000,203.000000,196.534653,6595300
2018-04-23,197.500000,198.500000,196.000000,196.000000,194.059402,4642800
2018-04-24,195.500000,195.500000,190.000000,191.000000,189.108917,4735100
2018-04-25,190.000000,191.500000,189.000000,191.500000,189.603958,5483000
2018-04-26,192.000000,193.500000,191.500000,192.500000,190.594055,3016500
2018-04-27,193.000000,194.500000,191.000000,194.500000,192.574265,3934600
2018-04-30,195.000000,195.000000,193.000000,193.000000,191.089111,2009900
2018-05-02,193.000000,195.000000,192.500000,195.000000,193.069305,2494700
2018-05-03,194.500000,195.000000,192.000000,194.000000,192.079208,3585600
2018-05-04,193.000000,193.000000,191.000000,191.000000,189.108917,3422700
2018-05-07,191.500000,192.000000,188.000000,189.000000,187.128708,4106600
2018-05-08,190.000000,191.500000,189.000000,191.500000,189.603958,5843300
2018-05-09,191.500000,191.500000,184.500000,188.000000,186.138611,9326500
2018-05-10,186.500000,187.000000,185.500000,187.000000,185.148514,3162000
2018-05-11,187.500000,190.500000,187.500000,190.000000,188.118805,5735100
2018-05-14,191.000000,192.500000,190.500000,192.000000,190.099014,3914000
2018-05-15,192.000000,192.000000,190.500000,191.500000,189.603958,980200
2018-05-16,190.500000,192.000000,190.000000,191.000000,189.108917,1546200
2018-05-17,190.500000,191.000000,187.000000,187.000000,185.148514,2705200
2018-05-18,188.000000,189.000000,187.500000,188.500000,186.633667,1942400
2018-05-21,189.000000,194.000000,189.000000,193.500000,191.584152,3604300
2018-05-22,194.000000,194.500000,192.500000,194.000000,192.079208,5752100
2018-05-23,195.000000,195.000000,193.000000,193.500000,191.584152,3542600
2018-05-24,193.500000,193.500000,192.000000,192.000000,190.099014,2650700
2018-05-25,193.000000,194.000000,191.000000,193.500000,191.584152,2746300
2018-05-28,193.500000,196.500000,193.000000,195.500000,193.564362,3776000
2018-05-30,192.000000,193.500000,190.500000,192.500000,190.594055,5186400
2018-05-31,191.500000,192.000000,189.000000,189.000000,187.128708,8078000
2018-06-01,189.500000,191.000000,188.500000,189.500000,187.623764,5284200
2018-06-04,189.000000,190.500000,188.500000,189.500000,187.623764,4194000
2018-06-05,190.000000,195.000000,189.500000,195.000000,193.069305,7852700
2018-06-06,195.500000,196.000000,194.000000,194.500000,192.574265,3815800
2018-06-07,196.000000,197.500000,194.500000,195.000000,193.069305,7001300
2018-06-08,194.500000,196.000000,194.000000,195.500000,193.564362,3787900
2018-06-11,195.500000,196.500000,193.500000,196.500000,194.554459,2369900
2018-06-12,197.000000,198.500000,196.000000,198.000000,196.039612,5892300
2018-06-13,198.000000,198.500000,197.000000,198.000000,196.039612,3621100
2018-06-14,198.000000,199.500000,195.500000,199.500000,197.524750,6524800
2018-06-15,198.000000,201.000000,197.500000,199.500000,197.524750,7781300
2018-06-18,198.500000,199.000000,197.500000,197.500000,195.544556,2665500
2018-06-19,195.500000,197.500000,191.500000,195.000000,193.069305,7075700
2018-06-20,195.500000,197.000000,193.500000,197.000000,195.049500,3907700
2018-06-21,198.000000,198.000000,193.000000,195.000000,193.069305,4309300
2018-06-22,195.000000,195.000000,192.500000,192.500000,190.594055,4590800
2018-06-25,192.000000,193.500000,191.500000,192.500000,190.594055,1799000
2018-06-26,191.500000,194.500000,190.500000,193.500000,191.584152,4440200
2018-06-27,194.000000,195.500000,193.500000,194.500000,192.574265,3547000
2018-06-28,194.500000,196.000000,193.000000,194.500000,192.574265,4083400
2018-06-29,195.500000,196.000000,193.500000,195.500000,193.564362,3368800
2018-07-02,195.500000,197.000000,193.500000,197.000000,195.049500,2139900
2018-07-03,197.000000,197.000000,195.000000,196.000000,194.059402,2269800
2018-07-04,195.500000,198.500000,195.500000,196.000000,194.059402,5948000
2018-07-05,196.500000,198.000000,194.500000,194.500000,192.574265,3712200
2018-07-06,194.500000,197.500000,194.500000,197.000000,195.049500,3119900
2018-07-09,197.500000,198.500000,196.000000,197.000000,195.049500,3584700
2018-07-10,197.000000,198.000000,195.500000,197.500000,195.544556,3181200
2018-07-11,194.000000,197.500000,194.000000,196.000000,194.059402,2995900
2018-07-12,195.500000,196.500000,192.500000,193.000000,191.089111,6810400
2018-07-13,193.500000,195.000000,192.500000,193.000000,191.089111,3866100
2018-07-16,192.500000,193.500000,192.500000,193.000000,191.089111,2467000
2018-07-17,193.000000,195.500000,193.000000,194.000000,192.079208,6337100
2018-07-18,194.500000,195.500000,194.000000,194.000000,192.079208,4056100
2018-07-19,194.500000,195.000000,193.000000,193.000000,191.089111,4356500
2018-07-20,196.000000,198.500000,195.500000,197.500000,195.544556,16987900
2018-07-23,199.500000,203.000000,199.500000,202.000000,200.000000,9426800
2018-07-24,203.000000,205.000000,201.000000,205.000000,202.970291,7310000
2018-07-25,205.000000,206.000000,203.000000,203.000000,200.990097,5521600
2018-07-26,205.000000,205.000000,202.000000,204.000000,201.980194,2821300
2018-07-31,205.000000,207.000000,203.000000,206.000000,203.960403,8364400
2018-08-01,206.000000,206.000000,204.000000,206.000000,203.960403,4199300
2018-08-02,205.000000,206.000000,202.000000,203.000000,200.990097,3557200
2018-08-03,204.000000,206.000000,203.000000,205.000000,202.970291,2207000
2018-08-06,206.000000,207.000000,204.000000,205.000000,202.970291,3537000
2018-08-07,206.000000,207.000000,204.000000,206.000000,203.960403,3068500
2018-08-08,206.000000,208.000000,205.000000,206.000000,203.960403,3724300
2018-08-09,207.000000,209.000000,206.000000,208.000000,205.940598,4093900
2018-08-10,208.000000,208.000000,206.000000,206.000000,203.960403,3399500
2018-08-14,205.000000,206.000000,203.000000,204.000000,201.980194,3254800
2018-08-15,203.000000,203.000000,201.000000,201.000000,199.009903,3437900
2018-08-16,202.000000,205.000000,202.000000,204.000000,201.980194,3436900
2018-08-17,205.000000,206.000000,204.000000,205.000000,202.970291,2811800
2018-08-20,206.000000,207.000000,205.000000,206.000000,203.960403,2157800
2018-08-21,207.000000,208.000000,204.000000,206.000000,203.960403,4650600
2018-08-22,206.000000,208.000000,205.000000,207.000000,204.950500,2589300
2018-08-23,208.000000,208.000000,206.000000,207.000000,204.950500,1986500
2018-08-24,206.000000,208.000000,206.000000,207.000000,204.950500,1588800
2018-08-27,209.000000,210.000000,208.000000,210.000000,207.920792,3349800
2018-08-28,211.000000,211.000000,209.000000,209.000000,206.930695,2607500
2018-08-29,210.000000,210.000000,207.000000,207.000000,204.950500,2264300
2018-08-30,208.000000,209.000000,206.000000,206.000000,203.960403,1960400
2018-08-31,206.000000,207.000000,204.000000,205.000000,202.970291,4294100
2018-09-03,205.000000,207.000000,205.000000,206.000000,203.960403,3020800
2018-09-04,206.000000,207.000000,204.000000,205.000000,202.970291,2915400
2018-09-05,204.000000,205.000000,203.000000,204.000000,201.980194,3047400
2018-09-06,204.000000,206.000000,204.000000,205.000000,202.970291,4273600
2018-09-07,205.000000,205.000000,202.000000,202.000000,200.000000,3560800
2018-09-10,202.000000,203.000000,201.000000,202.000000,200.000000,3666300
2018-09-11,202.000000,204.000000,201.000000,202.000000,200.000000,3482500
2018-09-12,200.000000,202.000000,199.000000,201.000000,201.000000,3214200
2018-09-13,204.000000,210.000000,203.000000,209.000000,209.000000,9853400
2018-09-14,209.000000,212.000000,209.000000,209.000000,209.000000,5871800
2018-09-17,207.000000,210.000000,207.000000,209.000000,209.000000,3928800
2018-09-18,209.000000,214.000000,208.000000,213.000000,213.000000,6612900
2018-09-19,213.000000,214.000000,211.000000,211.000000,211.000000,3876600
2018-09-20,211.000000,212.000000,207.000000,208.000000,208.000000,5944000
2018-09-21,209.000000,210.000000,208.000000,208.000000,208.000000,7370600
2018-09-24,208.000000,212.000000,208.000000,211.000000,211.000000,5739500
2018-09-25,211.000000,212.000000,210.000000,211.000000,211.000000,2502700
2018-09-26,211.000000,212.000000,209.000000,211.000000,211.000000,3418800
2018-09-27,211.000000,212.000000,208.000000,212.000000,212.000000,3517300
2018-09-28,212.000000,213.000000,209.000000,210.000000,210.000000,4586500
2018-10-01,211.000000,212.000000,209.000000,210.000000,210.000000,2061400
2018-10-02,209.000000,211.000000,207.000000,209.000000,209.000000,4142500
2018-10-03,209.000000,210.000000,208.000000,208.000000,208.000000,1568000
2018-10-04,208.000000,210.000000,207.000000,208.000000,208.000000,3260600
2018-10-05,208.000000,210.000000,208.000000,210.000000,210.000000,1567900
2018-10-08,210.000000,211.000000,208.000000,208.000000,208.000000,2716400
2018-10-09,208.000000,211.000000,207.000000,210.000000,210.000000,4497500
2018-10-10,211.000000,212.000000,210.000000,212.000000,212.000000,2627200
2018-10-11,208.000000,210.000000,206.000000,208.000000,208.000000,7375000
2018-10-12,209.000000,210.000000,208.000000,210.000000,210.000000,4398600
2018-10-16,210.000000,212.000000,209.000000,212.000000,212.000000,4130700
2018-10-17,213.000000,214.000000,212.000000,213.000000,213.000000,4544400
2018-10-18,213.000000,213.000000,211.000000,213.000000,213.000000,2942400
2018-10-19,212.000000,213.000000,210.000000,211.000000,211.000000,4360100
2018-10-22,211.000000,211.000000,210.000000,210.000000,210.000000,1609300
2018-10-24,208.000000,211.000000,208.000000,209.000000,209.000000,5891000
2018-10-25,208.000000,209.000000,204.000000,207.000000,207.000000,9189400
2018-10-26,208.000000,208.000000,206.000000,206.000000,206.000000,3717700
2018-10-29,206.000000,209.000000,205.000000,206.000000,206.000000,4157700
2018-10-30,206.000000,209.000000,205.000000,207.000000,207.000000,2340900
2018-10-31,207.000000,209.000000,207.000000,207.000000,207.000000,3746800
2018-11-01,208.000000,212.000000,208.000000,212.000000,212.000000,4925600
2018-11-02,213.000000,215.000000,211.000000,214.000000,214.000000,6481000
2018-11-05,212.000000,216.000000,212.000000,214.000000,214.000000,4290200
2018-11-06,215.000000,216.000000,215.000000,216.000000,216.000000,1592500
2018-11-07,216.000000,217.000000,214.000000,215.000000,215.000000,3889500
2018-11-08,217.000000,218.000000,214.000000,215.000000,215.000000,3647900
2018-11-09,213.000000,215.000000,213.000000,214.000000,214.000000,2621600
2018-11-12,214.000000,215.000000,211.000000,212.000000,212.000000,2887900
2018-11-13,212.000000,216.000000,211.000000,213.000000,213.000000,4626200
2018-11-14,212.000000,214.000000,209.000000,210.000000,210.000000,4994800
2018-11-15,211.000000,212.000000,209.000000,210.000000,210.000000,3858000
2018-11-16,210.000000,211.000000,209.000000,210.000000,210.000000,2366300
2018-11-19,210.000000,210.000000,206.000000,206.000000,206.000000,3466400
2018-11-20,205.000000,206.000000,203.000000,205.000000,205.000000,5052700
2018-11-21,203.000000,208.000000,202.000000,207.000000,207.000000,4244700
2018-11-22,208.000000,209.000000,206.000000,207.000000,207.000000,1964300
2018-11-23,207.000000,208.000000,204.000000,205.000000,205.000000,4462000
2018-11-26,206.000000,209.000000,205.000000,209.000000,209.000000,1292200
2018-11-27,209.000000,210.000000,208.000000,210.000000,210.000000,2498700
2018-11-28,210.000000,211.000000,207.000000,207.000000,207.000000,2504400
2018-11-29,208.000000,210.000000,206.000000,206.000000,206.000000,2561200
2018-11-30,207.000000,210.000000,205.000000,208.000000,208.000000,3535300
2018-12-03,210.000000,212.000000,209.000000,210.000000,210.000000,4022400
2018-12-04,210.000000,212.000000,210.000000,211.000000,211.000000,2160000
2018-12-06,208.000000,210.000000,207.000000,209.000000,209.000000,2981700
2018-12-07,208.000000,210.000000,206.000000,207.000000,207.000000,5887100
2018-12-11,206.000000,208.000000,206.000000,206.000000,206.000000,4312000
2018-12-12,208.000000,208.000000,206.000000,206.000000,206.000000,4189100
2018-12-13,207.000000,209.000000,207.000000,209.000000,209.000000,3512700
2018-12-14,208.000000,209.000000,205.000000,207.000000,207.000000,3985800
2018-12-17,207.000000,208.000000,204.000000,206.000000,206.000000,3735400
2018-12-18,204.000000,205.000000,202.000000,205.000000,205.000000,5320100
