Date,Open,High,Low,Close,Adj Close,Volume
2017-12-18,150.000000,150.500000,149.000000,149.500000,143.771576,8170300
2017-12-19,150.000000,151.000000,149.500000,151.000000,145.214096,20952800
2017-12-20,151.000000,152.000000,150.000000,151.000000,145.214096,13729400
2017-12-21,151.500000,151.500000,150.000000,151.000000,145.214096,5736900
2017-12-22,151.000000,152.000000,150.500000,150.500000,144.733261,5688700
2017-12-25,151.000000,152.000000,150.500000,152.000000,146.175781,3417400
2017-12-26,151.500000,152.000000,149.500000,149.500000,143.771576,10332600
2017-12-27,150.000000,150.500000,149.000000,149.000000,143.290741,8424300
2017-12-28,149.500000,150.000000,147.500000,148.000000,142.329056,10596300
2017-12-29,148.000000,150.000000,147.500000,150.000000,144.252426,5854300
2018-01-03,147.500000,152.000000,147.500000,150.000000,144.252426,25868000
2018-01-04,150.500000,150.500000,148.500000,149.500000,143.771576,17023100
2018-01-05,149.000000,149.500000,148.000000,148.000000,142.329056,19295300
2018-01-08,149.000000,150.500000,148.500000,150.000000,144.252426,13954100
2018-01-09,149.500000,149.500000,149.500000,149.500000,143.771576,953500
2018-01-10,151.000000,151.000000,150.000000,150.000000,144.252426,9847800
2018-01-11,150.500000,154.500000,150.500000,154.500000,148.579987,30471300
2018-01-12,156.500000,159.000000,156.000000,158.500000,152.426727,33749700
2018-01-15,160.000000,162.500000,159.500000,162.000000,155.792618,21669800
2018-01-16,162.500000,162.500000,159.500000,161.000000,154.830933,12393800
2018-01-17,160.500000,162.000000,160.000000,162.000000,155.792618,10282400
2018-01-18,162.500000,162.500000,156.500000,157.000000,150.984192,13015200
2018-01-19,153.500000,154.000000,151.000000,153.500000,147.618317,31816700
2018-01-22,153.000000,155.000000,152.000000,154.000000,148.099152,11827300
2018-01-23,155.500000,159.500000,155.000000,158.000000,151.945877,22354700
2018-01-24,157.500000,157.500000,156.500000,156.500000,150.503357,6794600
2018-01-25,157.000000,158.500000,155.500000,156.000000,150.022522,8801200
2018-01-26,156.000000,158.000000,155.500000,158.000000,151.945877,8229700
2018-01-29,158.500000,159.500000,157.500000,159.000000,152.907562,7734200
2018-01-30,158.000000,158.500000,155.000000,155.500000,149.541672,11872800
2018-01-31,155.000000,157.500000,155.000000,157.500000,151.465042,7571200
2018-02-01,157.500000,158.500000,157.000000,157.500000,151.465042,5017900
2018-02-02,158.500000,158.500000,155.000000,155.500000,149.541672,7645100
2018-02-05,154.500000,155.000000,152.500000,153.500000,147.618317,14469300
2018-02-06,151.000000,152.500000,149.500000,151.500000,145.694946,21200500
2018-02-07,152.000000,152.500000,149.000000,149.500000,143.771576,15968000
2018-02-08,149.500000,151.000000,149.000000,150.000000,144.252426,7178100
2018-02-09,148.500000,149.500000,148.000000,148.000000,142.329056,12050800
2018-02-12,148.500000,149.500000,147.500000,149.000000,143.290741,7915900
2018-02-13,149.500000,151.000000,149.000000,149.500000,143.771576,9819200
2018-02-14,149.500000,150.500000,148.500000,148.500000,142.809891,7714500
2018-02-15,149.000000,149.500000,147.000000,148.500000,142.809891,12678700
2018-02-16,149.000000,149.500000,148.000000,149.000000,143.290741,5236300
2018-02-19,149.000000,150.000000,148.000000,149.000000,143.290741,6860400
2018-02-20,149.500000,149.500000,148.000000,148.000000,142.329056,6121200
2018-02-21,148.500000,149.000000,147.500000,149.000000,143.290741,6695300
2018-02-22,148.500000,149.000000,146.500000,146.500000,140.886536,7461000
2018-02-23,147.000000,149.000000,147.000000,148.500000,142.809891,8902500
2018-02-26,148.500000,149.000000,147.500000,148.500000,142.809891,8981400
2018-02-27,150.000000,150.500000,148.500000,148.500000,142.809891,12020400
2018-02-28,149.500000,150.500000,149.000000,149.000000,143.290741,7995200
2018-03-02,148.500000,149.000000,147.500000,148.500000,142.809891,4960600
2018-03-05,148.500000,149.000000,147.500000,148.500000,142.809891,3471800
2018-03-06,147.500000,147.500000,147.500000,147.500000,141.848221,500100
2018-03-07,147.000000,148.000000,146.500000,147.000000,141.367371,4572600
2018-03-08,147.000000,148.000000,146.000000,146.500000,140.886536,6375800
2018-03-09,147.500000,148.500000,146.500000,148.500000,142.809891,5655800
2018-03-12,149.000000,149.500000,148.500000,149.000000,143.290741,3652900
2018-03-13,149.000000,149.500000,148.000000,149.000000,143.290741,3210500
2018-03-14,149.000000,149.500000,148.000000,148.000000,142.329056,2251400
2018-03-15,148.500000,150.500000,148.000000,150.000000,144.252426,9143200
2018-03-16,149.500000,150.000000,148.000000,148.000000,142.329056,8202200
2018-03-19,148.000000,149.000000,148.000000,148.000000,142.329056,3118800
2018-03-20,148.000000,148.500000,146.500000,147.000000,141.367371,6270600
2018-03-21,145.500000,146.500000,144.500000,146.000000,140.405685,11612800
2018-03-22,146.000000,146.000000,145.000000,145.000000,139.444016,6181400
2018-03-23,144.000000,145.500000,144.000000,145.500000,139.924850,4221200
2018-03-26,145.500000,146.000000,144.500000,145.000000,139.444016,3358900
2018-03-27,145.500000,146.500000,144.500000,145.000000,139.444016,5070100
2018-03-28,144.500000,144.500000,140.500000,141.500000,136.078125,18698000
2018-03-29,142.000000,143.500000,141.500000,143.500000,138.001480,10127500
2018-03-30,144.000000,144.000000,141.500000,143.000000,137.520645,5656400
2018-04-02,142.500000,145.000000,142.500000,145.000000,139.444016,2737000
2018-04-03,143.500000,144.500000,142.500000,143.500000,138.001480,3760300
2018-04-04,143.500000,144.000000,138.000000,140.000000,134.635590,15470800
2018-04-05,141.000000,141.000000,136.500000,138.000000,132.712234,11180000
2018-04-09,139.500000,140.500000,138.500000,140.000000,134.635590,7638600
2018-04-10,141.000000,141.000000,139.500000,140.500000,135.116440,8552300
2018-04-11,142.500000,143.000000,140.500000,141.500000,136.078125,12872800
2018-04-12,141.500000,141.500000,140.000000,141.000000,135.597275,11696200
2018-04-17,138.000000,138.000000,136.500000,136.500000,135.102386,7695700
2018-04-18,137.000000,138.500000,136.000000,138.000000,136.587036,8000700
2018-04-19,138.500000,139.000000,137.000000,137.500000,136.092148,4801400
2018-04-20,140.000000,140.500000,138.000000,138.500000,137.081909,10387900
2018-04-23,138.500000,138.500000,136.000000,136.000000,134.607513,6505300
2018-04-24,135.500000,136.000000,132.000000,133.000000,131.638229,14199400
2018-04-25,132.000000,132.500000,130.000000,130.500000,129.163818,10226600
2018-04-26,130.500000,132.500000,130.500000,131.500000,130.153580,5658300
2018-04-27,132.500000,133.000000,131.000000,133.000000,131.638229,5704300
2018-04-30,133.000000,133.500000,130.500000,131.000000,129.658707,6300700
2018-05-02,132.000000,133.500000,131.500000,133.500000,132.133102,4857500
2018-05-03,133.000000,133.000000,130.500000,130.500000,129.163818,5758900
2018-05-04,130.500000,131.500000,130.000000,131.000000,129.658707,7057100
2018-05-07,132.000000,133.000000,131.500000,132.500000,131.143341,4887100
2018-05-08,134.500000,136.000000,134.000000,134.500000,133.122864,12896600
2018-05-09,134.500000,135.000000,133.000000,133.000000,131.638229,5504100
2018-05-10,133.500000,133.500000,130.000000,131.000000,129.658707,6849900
2018-05-11,131.500000,134.000000,131.000000,134.000000,132.627991,5454000
2018-05-14,136.000000,136.500000,134.500000,136.500000,135.102386,6234200
2018-05-15,136.000000,136.500000,134.000000,134.500000,133.122864,4855800
2018-05-16,132.500000,134.500000,132.000000,133.500000,132.133102,3395000
2018-05-17,132.500000,133.500000,132.000000,132.000000,130.648468,4513600
2018-05-18,132.500000,135.000000,131.500000,134.000000,132.627991,6071500
2018-05-21,135.000000,136.500000,134.500000,135.500000,134.112625,5634300
2018-05-22,135.500000,137.000000,135.000000,136.000000,134.607513,5280400
2018-05-23,135.500000,137.500000,135.000000,136.500000,135.102386,6432600
2018-05-24,135.000000,137.000000,134.500000,136.000000,134.607513,4567200
2018-05-25,136.000000,137.500000,135.500000,137.500000,136.092148,3874300
2018-05-28,137.500000,138.500000,136.500000,138.000000,136.587036,3457000
2018-05-30,135.500000,137.500000,135.000000,136.500000,135.102386,6533300
2018-05-31,137.000000,137.000000,133.000000,133.000000,131.638229,12971100
2018-06-01,133.000000,136.000000,132.500000,136.000000,134.607513,4712500
2018-06-04,134.500000,135.500000,133.000000,134.500000,133.122864,4718800
2018-06-05,134.500000,139.500000,134.500000,139.500000,138.071671,12565900
2018-06-06,140.000000,140.500000,138.000000,140.000000,138.566559,8156800
2018-06-07,140.500000,142.000000,139.000000,139.000000,137.576797,8005200
2018-06-08,139.000000,140.000000,136.000000,136.000000,134.607513,6548400
2018-06-11,136.000000,138.000000,135.000000,137.500000,136.092148,4920500
2018-06-12,138.500000,139.000000,138.000000,138.000000,136.587036,6645300
2018-06-13,135.000000,137.500000,135.000000,136.000000,134.607513,5759600
2018-06-14,135.000000,136.000000,134.000000,135.000000,133.617752,10989000
2018-06-15,135.000000,137.500000,135.000000,137.500000,136.092148,14927200
2018-06-18,136.000000,136.000000,133.500000,133.500000,132.133102,7654400
2018-06-19,132.000000,133.000000,130.500000,131.000000,129.658707,13662400
2018-06-20,132.000000,132.500000,129.500000,131.000000,129.658707,13216200
2018-06-21,130.500000,131.000000,128.500000,129.500000,128.174057,11218000
2018-06-22,130.000000,130.500000,128.000000,128.500000,127.184303,7386400
2018-06-25,127.000000,127.500000,123.000000,124.000000,122.730377,19107000
2018-06-26,123.000000,125.500000,123.000000,124.500000,123.225258,8445300
2018-06-27,125.000000,126.000000,122.500000,123.000000,121.740616,9582800
2018-06-28,122.000000,122.500000,117.500000,117.500000,116.296928,20187700
2018-06-29,119.500000,120.000000,117.000000,118.500000,117.286690,13472200
2018-07-02,121.500000,122.000000,119.500000,120.500000,119.266212,9443300
2018-07-03,121.000000,123.000000,121.000000,122.000000,120.750854,12907900
2018-07-04,122.500000,125.000000,120.500000,125.000000,123.720139,14676800
2018-07-05,125.000000,125.500000,121.000000,122.500000,121.245735,12413000
2018-07-06,123.000000,125.500000,122.000000,125.000000,123.720139,7806100
2018-07-09,126.000000,126.000000,121.500000,123.000000,121.740616,9659300
2018-07-10,122.500000,124.000000,122.000000,123.500000,122.235497,7645300
2018-07-11,122.000000,123.000000,121.500000,121.500000,120.255974,8202300
2018-07-12,122.000000,124.500000,122.000000,124.000000,122.730377,8904300
2018-07-13,125.500000,125.500000,123.000000,124.500000,123.225258,7406400
2018-07-16,123.500000,124.500000,121.500000,122.000000,120.750854,6002100
2018-07-17,122.000000,123.500000,121.000000,123.000000,121.740616,10669100
2018-07-18,124.000000,125.500000,123.000000,125.000000,123.720139,12619300
2018-07-19,126.000000,128.000000,125.500000,126.500000,125.204781,7943500
2018-07-20,129.000000,132.000000,128.500000,132.000000,130.648468,14013700
2018-07-23,131.500000,133.000000,130.500000,132.000000,130.648468,8515400
2018-07-24,132.500000,132.500000,131.000000,131.500000,130.153580,6598800
2018-07-25,132.000000,134.000000,132.000000,133.000000,131.638229,6827600
2018-07-26,134.500000,137.000000,134.500000,136.500000,135.102386,11725800
2018-07-31,137.500000,140.000000,137.500000,140.000000,138.566559,17545500
2018-08-01,140.500000,142.000000,140.000000,141.000000,139.556320,12006200
2018-08-02,141.000000,141.500000,139.000000,141.000000,139.556320,14480800
2018-08-03,140.000000,141.500000,137.500000,141.500000,140.051193,12954200
2018-08-06,142.000000,143.000000,141.500000,141.500000,140.051193,10292600
2018-08-07,142.500000,143.000000,139.000000,143.000000,141.535843,10818200
2018-08-08,142.500000,143.000000,142.000000,143.000000,141.535843,6182500
2018-08-09,143.000000,147.500000,143.000000,147.500000,145.989761,18838700
2018-08-10,146.500000,146.500000,145.000000,145.500000,144.010239,8014500
2018-08-14,143.500000,144.500000,143.000000,143.500000,142.030716,7055900
2018-08-15,143.000000,145.000000,141.500000,144.500000,143.020477,7684100
2018-08-16,144.000000,144.500000,142.500000,144.000000,142.525604,6834200
2018-08-17,144.500000,145.000000,144.000000,144.000000,142.525604,3420100
2018-08-20,144.000000,146.000000,144.000000,146.000000,144.505127,4215500
2018-08-21,145.000000,146.000000,144.000000,144.500000,143.020477,8111000
2018-08-22,144.500000,146.000000,144.500000,145.000000,143.515366,2757700
2018-08-23,146.000000,147.500000,145.500000,147.000000,145.494888,8190200
2018-08-24,146.000000,147.000000,146.000000,147.000000,145.494888,3073800
2018-08-27,147.500000,148.000000,146.500000,147.500000,145.989761,5581800
2018-08-28,147.500000,148.000000,145.000000,145.500000,144.010239,5241300
2018-08-29,146.000000,147.000000,145.500000,146.000000,144.505127,4025800
2018-08-30,146.500000,147.500000,146.500000,146.500000,145.000000,2327300
2018-08-31,146.000000,148.000000,145.500000,148.000000,146.484650,7332000
2018-09-03,147.000000,147.500000,145.500000,146.500000,145.000000,6626000
2018-09-04,145.000000,146.000000,144.500000,145.500000,145.500000,4144700
2018-09-05,144.500000,145.000000,141.500000,141.500000,141.500000,7750000
2018-09-06,142.000000,145.000000,141.500000,144.500000,144.500000,7440600
2018-09-07,143.500000,146.000000,143.000000,145.500000,145.500000,5665700
2018-09-10,144.500000,145.500000,144.000000,145.000000,145.000000,4513600
2018-09-11,145.500000,146.000000,143.000000,143.500000,143.500000,4271000
2018-09-12,142.500000,147.500000,142.000000,147.000000,147.000000,8692200
2018-09-13,148.000000,149.500000,147.500000,149.500000,149.500000,14659200
2018-09-14,149.500000,150.000000,148.500000,149.500000,149.500000,8820300
2018-09-17,148.000000,148.500000,145.500000,147.000000,147.000000,9025000
2018-09-18,147.500000,150.000000,147.000000,149.000000,149.000000,13208700
2018-09-19,149.000000,150.000000,148.500000,148.500000,148.500000,7380800
2018-09-20,149.000000,149.500000,148.000000,149.500000,149.500000,3935800
2018-09-21,149.500000,151.000000,149.000000,149.000000,149.000000,12511000
2018-09-24,148.500000,149.500000,148.000000,148.000000,148.000000,3965400
2018-09-25,148.500000,149.000000,147.500000,148.500000,148.500000,2697000
2018-09-26,148.000000,148.500000,144.000000,144.500000,144.500000,14434400
2018-09-27,145.000000,148.000000,145.000000,148.000000,148.000000,8188100
2018-09-28,148.000000,149.000000,147.000000,149.000000,149.000000,4336400
2018-10-01,148.000000,149.000000,146.500000,147.000000,147.000000,3979400
2018-10-02,146.500000,147.500000,145.500000,146.500000,146.500000,3765800
2018-10-03,147.000000,147.000000,145.500000,146.500000,146.500000,2035100
2018-10-04,145.000000,145.500000,143.500000,144.500000,144.500000,5880800
2018-10-05,144.000000,145.000000,143.500000,143.500000,143.500000,3097000
2018-10-08,143.500000,145.500000,143.000000,143.500000,143.500000,3666800
2018-10-09,143.000000,144.000000,141.000000,141.500000,141.500000,9496600
2018-10-10,143.000000,144.000000,142.500000,143.500000,143.500000,4692800
2018-10-11,140.000000,141.500000,139.000000,140.500000,140.500000,8136600
2018-10-12,141.500000,143.000000,141.000000,141.500000,141.500000,5212300
2018-10-16,141.500000,142.500000,141.000000,142.000000,142.000000,3980000
2018-10-17,143.000000,143.500000,142.000000,142.000000,142.000000,1627200
2018-10-18,142.500000,143.500000,141.500000,143.000000,143.000000,2338100
2018-10-19,142.000000,144.000000,141.500000,142.000000,142.000000,6385000
2018-10-22,142.500000,143.500000,140.500000,140.500000,140.500000,7022200
2018-10-24,140.000000,140.500000,135.000000,136.000000,136.000000,11480400
2018-10-25,134.500000,140.000000,133.000000,140.000000,140.000000,7796000
2018-10-26,139.500000,139.500000,137.000000,137.500000,137.500000,6372800
2018-10-29,138.000000,139.000000,134.000000,135.000000,135.000000,7271600
2018-10-30,136.000000,136.500000,134.500000,135.000000,135.000000,4693100
2018-10-31,137.000000,137.500000,135.500000,137.500000,137.500000,5453400
2018-11-01,139.000000,139.000000,136.000000,138.000000,138.000000,6484300
2018-11-02,139.000000,142.000000,138.500000,142.000000,142.000000,6658200
2018-11-05,140.000000,141.500000,139.500000,141.000000,141.000000,5706800
2018-11-06,140.000000,141.500000,139.000000,139.500000,139.500000,4937800
2018-11-07,139.500000,140.000000,137.000000,139.000000,139.000000,6223600
2018-11-08,140.000000,141.000000,139.000000,139.000000,139.000000,6584400
2018-11-09,138.500000,140.500000,138.000000,139.500000,139.500000,3612300
2018-11-12,140.000000,140.500000,137.500000,138.000000,138.000000,1725200
2018-11-13,137.500000,139.000000,137.000000,137.000000,137.000000,6401800
2018-11-14,137.000000,138.500000,137.000000,137.500000,137.500000,4049800
2018-11-15,137.500000,138.500000,137.000000,137.500000,137.500000,4111100
2018-11-16,137.000000,139.000000,136.000000,138.000000,138.000000,2673800
2018-11-19,137.500000,138.500000,136.000000,136.500000,136.500000,4125000
2018-11-20,136.000000,136.500000,131.500000,133.000000,133.000000,11226800
2018-11-21,131.000000,135.500000,130.500000,134.500000,134.500000,6533600
2018-11-22,134.500000,135.000000,132.000000,133.000000,133.000000,2636000
2018-11-23,133.000000,135.000000,132.000000,135.000000,135.000000,3165000
2018-11-26,135.000000,138.000000,134.500000,138.000000,138.000000,3679500
2018-11-27,138.000000,138.500000,137.000000,137.500000,137.500000,4419700
2018-11-28,137.500000,138.500000,136.500000,137.500000,137.500000,2742700
2018-11-29,138.000000,138.500000,135.500000,136.500000,136.500000,3971200
2018-11-30,137.500000,139.500000,137.000000,139.000000,139.000000,5737600
2018-12-03,141.000000,142.500000,140.500000,141.500000,141.500000,7185100
2018-12-04,142.500000,143.000000,141.500000,142.000000,142.000000,4472900
2018-12-06,140.000000,140.500000,138.500000,139.500000,139.500000,5589500
2018-12-07,140.500000,141.000000,139.000000,139.000000,139.000000,4533900
2018-12-11,138.000000,141.000000,137.500000,139.500000,139.500000,4224700
2018-12-12,141.000000,141.500000,140.000000,140.500000,140.500000,4242100
2018-12-13,141.500000,142.500000,141.500000,142.500000,142.500000,9198800
2018-12-14,142.000000,142.000000,138.500000,138.500000,138.500000,6628300
